{
 "ns": "$igtemplate|",
 "server": {
	"port": 8080,
	"ip": "127.0.0.1",
	"secret": "server_secret",
	"url": "http://production.or.dev.com"
 },
 "db": {
 	"uri": "mongodb://localhost/tales"
 },
 "facebook": {
  "appId": "467202426737722",
  "secret": "c81d4e4f5f608c98b916e0a0ea442d58"
 },
 "TOKEN_EXPIRATION_SEC": "86400",
 "remove_bitbucket_private": [],
 "debug": false
}